<svg data-rbsvg-init  class="074-rss.svg" enable-background="new 0 0 24 24" viewBox="0 0 24 24" xmlns="http://www.w3.org/2000/svg"><g fill="#ff9800">
<circle class="rbsvgi_0" cx="3.429" cy="20.571" r="3.429"/>
<path class="rbsvgi_1" d="m11.429 24h4.57c0-8.821-7.178-15.999-15.999-16v4.572c6.302.001 11.429 5.126 11.429 11.428z"/>
<path class="rbsvgi_2" d="m24 24c0-13.234-10.766-24-24-24v4.571c10.714 0 19.43 8.714 19.43 19.429z"/></svg>