<svg data-rbsvg-init  class="094-twitch.svg" enable-background="new 0 0 24 24" viewBox="0 0 24 24" xmlns="http://www.w3.org/2000/svg"><g fill="#673ab7">
<path class="rbsvgi_0" d="m.975 4.175v16.694h5.749v3.131h3.139l3.134-3.132h4.705l6.274-6.258v-14.61h-21.434zm3.658-2.09h17.252v11.479l-3.66 3.652h-5.751l-3.134 3.127v-3.127h-4.707z"/>
<path class="rbsvgi_1" d="m10.385 6.262h2.09v6.26h-2.09z"/>
<path class="rbsvgi_2" d="m16.133 6.262h2.091v6.26h-2.091z"/></svg>